{
    "lipetsk":"https://weather.com/ru-RU/weather/hourbyhour/l/RSXX1459:1:RS",
    "spb":"https://weather.com/ru-RU/weather/hourbyhour/l/RSXX0091:1:RS",
    "moscow":"https://weather.com/ru-RU/weather/hourbyhour/l/RSXX0063:1:RS"
}